{
  "build": {
    "env": {
      "NEXT_PUBLIC_STRIPE_PUBLIC_KEY": "pk_test_51HL0nRDXI6qw2mshmhZQ3BCc6BeRoiesoNOONMTrZRezQOht2V2gCdoKHJhkwt9r7R8JpawaisOya36QDrNTSbZz00xrWMd23D",
      "NEXT_PUBLIC_GRAPHQL_API_ENDPOINT": "https://api-sepia-eight.vercel.app/shop/graphql"
    }
  }
}
